12 Data import – Stat112 Notebook
…
Part d

In some cases, missing data is more non-data than unknown data. For example, the films with NAs for actor_1_facebook_likes actually have 0 Facebook likes – they don’t even have actors! In these cases, we can replace the NAs with a 0. Use the replace_na() function to create a new dataset (imdb_temp) that replaces the NAs in actor_1_facebook_likes with 0. You’ll have to check out the help file for this function.

imdb_temp%>%
  mutate(actor_1_facebook_likes=replace_na(0))

# A tibble: 3,756 × 29
    ...1 color director_name     num_critic_for_reviews duration
   <dbl> <chr> <chr>                              <dbl>    <dbl>
 1     1 Color James Cameron                        723      178
 2     2 Color Gore Verbinski                       302      169
 3     3 Color Sam Mendes                           602      148
 4     4 Color Christopher Nolan                    813      164
 5     6 Color Andrew Stanton                       462      132
 6     7 Color Sam Raimi                            392      156
 7     8 Color Nathan Greno                         324      100
 8     9 Color Joss Whedon                          635      141
 9    10 Color David Yates                          375      153
10    11 Color Zack Snyder                          673      183
# ℹ 3,746 more rows
# ℹ 24 more variables: director_facebook_likes <dbl>,
#   actor_3_facebook_likes <dbl>, actor_2_name <chr>,
#   actor_1_facebook_likes <dbl>, gross <dbl>, genres <chr>,
#   actor_1_name <chr>, movie_title <chr>, num_voted_users <dbl>,
#   cast_total_facebook_likes <dbl>, actor_3_name <chr>,
#   facenumber_in_poster <dbl>, plot_keywords <chr>, movie_imdb_link <chr>, …
…
