7 Wrangling Practice – Stat112 Notebook
…
Exercise 3: Arranging, Counting, & Grouping by Multiple Variables

We’ve done examples where we need to filter() by more than one variable, or select() more than one variable. Use your intuition for how we can arrange(), count(), and group_by() more than one variable.

# Change this code to sort the penguins by species, and then island name
# NOTE: The first row should be an Adelie penguin living on Biscoe island
penguins |> 
  arrange(species, island)

# A tibble: 344 × 8
   species island bill_length_mm bill_depth_mm flipper_length_mm body_mass_g
   <chr>   <chr>           <dbl>         <dbl>             <dbl>       <dbl>
 1 Adelie  Biscoe           37.8          18.3               174        3400
 2 Adelie  Biscoe           37.7          18.7               180        3600
 3 Adelie  Biscoe           35.9          19.2               189        3800
 4 Adelie  Biscoe           38.2          18.1               185        3950
 5 Adelie  Biscoe           38.8          17.2               180        3800
 6 Adelie  Biscoe           35.3          18.9               187        3800
 7 Adelie  Biscoe           40.6          18.6               183        3550
 8 Adelie  Biscoe           40.5          17.9               187        3200
 9 Adelie  Biscoe           37.9          18.6               172        3150
10 Adelie  Biscoe           40.5          18.9               180        3950
# ℹ 334 more rows
# ℹ 2 more variables: sex <chr>, year <dbl>
…
# How many total births were there in this time period?
Birthdays%>%
  summarize(total_births=sum(births))

  total_births
1     70486538

# How many total births were there per state in this time period, sorted from low to high?
Birthdays%>%
  group_by(state)%>%
  summarize(total_births=sum(births))%>%
  arrange()

# A tibble: 51 × 2
   state total_births
   <chr>        <int>
 1 AK          185385
 2 AL         1206772
 3 AR          684220
 4 AZ          947234
 5 CA         7822785
 6 CO          946378
 7 CT          824338
 8 DC          425469
 9 DE          188705
10 FL         2624301
# ℹ 41 more rows
…
