6 Wrangling functions – Stat112 Notebook
…
[1] "grouped_df" "tbl_df"     "tbl"        "data.frame"

Where it really shines is in partnership with summarize().

# What does this do?
# (What if we didn't use group_by?)
 elections_small |> 
   group_by(state_name) |> 
   summarize(median_repub = median(repub_pct_20), total_votes = sum(total_votes_20)) 

# A tibble: 50 × 3
   state_name           median_repub total_votes
   <chr>                       <dbl>       <int>
 1 Alabama                      70.6     2323304
 2 Arizona                      57.9     3387326
 3 Arkansas                     72.1     1219069
 4 California                   44.8    17495906
 5 Colorado                     56.2     3256953
 6 Connecticut                  41.0     1824280
 7 Delaware                     47.1      504010
 8 District of Columbia          5.4      344356
 9 Florida                      64.6    11067456
10 Georgia                      68       4997716
# ℹ 40 more rows
…
Add each verb one at a time.

Part a

NOTE: Part a is a challenge exercise. If you get really stuck, move on to Part b which is the same overall question, but with hints.

# Sort the *states* from the most to least total votes cast in 2020

elections_small %>% 
  group_by(state_name)%>%
  summarize(total_votes=sum(total_votes_20))%>%
  arrange(desc(total_votes))

# A tibble: 50 × 2
   state_name     total_votes
   <chr>                <int>
 1 California        17495906
 2 Texas             11317911
 3 Florida           11067456
 4 New York           8616205
 5 Pennsylvania       6925255
 6 Illinois           6038850
 7 Ohio               5922202
 8 Michigan           5539302
 9 North Carolina     5524801
10 Georgia            4997716
# ℹ 40 more rows

# In 2020, what were the total number of votes for the Democratic candidate and the total number of votes for the Republican candidate in each *state*?

elections_small%>%
  mutate(dem_votes_20=dem_pct_20*total_votes_20)%>%
  mutate(repub_votes_20=repub_pct_20*total_votes_20)%>%
  group_by(state_name)%>% 
  summarize(total_vote_dem=sum(dem_votes_20), total_vote_repub=sum(repub_votes_20))

# A tibble: 50 × 3
   state_name           total_vote_dem total_vote_repub
   <chr>                         <dbl>            <dbl>
 1 Alabama                   84966521.       144115325.
 2 Arizona                  167212561.       166167238.
 3 Arkansas                  42391888.        76063890.
 4 California              1110964299.       600603367.
 5 Colorado                 180439477.       136462476.
 6 Connecticut              108067747.        71531461.
 7 Delaware                  29627408.        20060118.
 8 District of Columbia      31732405.         1859522.
 9 Florida                  529712890.       566859937.
10 Georgia                  247365644.       246187098.
# ℹ 40 more rows
…
